{
  "project_info": {
    "project_number": "470172960408",
    "firebase_url": "https://customermanagement-73b7e.firebaseio.com",
    "project_id": "customermanagement-73b7e",
    "storage_bucket": "customermanagement-73b7e.appspot.com"
  },
  "client": [
    {
      "client_info": {
        "mobilesdk_app_id": "1:470172960408:android:19846775a9ace103db32ed",
        "android_client_info": {
          "package_name": "com.customer_management.customer_management"
        }
      },
      "oauth_client": [
        {
          "client_id": "470172960408-82no19obbbepn4i1opgi9d7l3edhp1sd.apps.googleusercontent.com",
          "client_type": 3
        }
      ],
      "api_key": [
        {
          "current_key": "AIzaSyCTJK8g8vHTZS2-F47eZOD7XjZsL__7Ohk"
        }
      ],
      "services": {
        "appinvite_service": {
          "other_platform_oauth_client": [
            {
              "client_id": "470172960408-82no19obbbepn4i1opgi9d7l3edhp1sd.apps.googleusercontent.com",
              "client_type": 3
            }
          ]
        }
      }
    }
  ],
  "configuration_version": "1"
}